7 8 9 
4 5 6 
1 2 3 
13 14 15 16 
9 10 11 12 
5 6 7 8 
1 2 3 4 
21 22 23 24 25 
16 17 18 19 20 
11 12 13 14 15 
6 7 8 9 10 
1 2 3 4 5 
3 4 
1 2 
5 6 7 8 
1 2 3 4 
1 
1 2 3 4 5 6 7 8 
8 
7 
6 
5 
4 
3 
2 
1 
